[
    {
        "plural": "People Types",
        "singular": "People Type",
        "supports": "array('title')",
        "fields": []
    },
    {
        "plural": "People",
        "singular": "Person",
        "supports": "array('title', 'editor', 'thumbnail')",
        "fields": [
            {
                "field_slug": "person_first_name",
                "field_proper": "Person First Name",
                "type": "input_text"
            },
            {
                "field_slug": "person_last_name",
                "field_proper": "Person Last Name",
                "type": "input_text"
            },
            {
                "field_slug": "person_title",
                "field_proper": "Person Title",
                "type": "input_text"
            },
            {
                "field_slug": "person_type",
                "field_proper": "Person Type",
                "field_feed": "listPeopleTypes",
                "type": "input_select"
            }
        ]
    },
    {
        "plural": "News Items",
        "singular": "News Item",
        "supports": "array('title', 'editor')",
        "fields": [
            {
                "field_slug": "news_date",
                "field_proper": "News Date",
                "type": "input_date"
            }
        ]
    },
    {
        "plural": "Union Types",
        "singular": "Union Type",
        "supports": "array('title')",
        "fields": []
    },
    {
        "plural": "Unions",
        "singular": "Union",
        "supports": "array('title', 'editor')",
        "fields": [
            {
                "field_slug": "union_address_1",
                "field_proper": "Union Address 1",
                "type": "input_text"
            },
            {
                "field_slug": "union_address_2",
                "field_proper": "Union Address 2",
                "type": "input_text"
            },
            {
                "field_slug": "union_city",
                "field_proper": "Union City",
                "type": "input_text"
            },
            {
                "field_slug": "union_state",
                "field_proper": "Union State",
                "type": "input_text"
            },
            {
                "field_slug": "union_zip_code",
                "field_proper": "Union Zip Code",
                "type": "input_text"
            },
            {
                "field_slug": "union_phone",
                "field_proper": "Union Phone",
                "type": "input_text"
            },
            {
                "field_slug": "union_fax",
                "field_proper": "Union Fax",
                "type": "input_text"
            },
            {
                "field_slug": "union_rates",
                "field_proper": "Union Rates",
                "type": "input_editor"
            },
            {
                "field_slug": "union_rates_expiration",
                "field_proper": "Union Rate Expiration",
                "type": "input_date"
            },
            {
                "field_slug": "union_type",
                "field_proper": "Union Type",
                "field_feed": "listUnionTypes",
                "type": "input_select"
            }
        ]
    }
]